…
> ### * add_clusters
> 
> flush(stderr()); flush(stdout())
> 
> ### Name: add_clusters
> ### Title: Add cluster number to a data frame
> ### Aliases: add_clusters
> 
> ### ** Examples
> 
> library(volker)
> ds <- volker::chatgpt
> 
> volker::add_clusters(ds, starts_with("cg_adoption"), k = 3)
# A tibble: 97 × 20
    case use_private use_work cg_adoption_advantage_01 cg_adoption_advantage_02
   <dbl>       <dbl>    <dbl>                    <dbl>                    <dbl>
 1   170           4        4                        3                        4
 2   183           1        1                        4                        3
 3   195           2        4                        5                        5
 4   212           5        5                        4                        4
 5   222           2        3                        3                        2
 6   236           3        1                        3                        2
 7   255           3        1                        3                        1
 8   297           3        4                        4                        3
 9   309           3        3                        3                        4
10   325           2        1                        4                        1
# ℹ 87 more rows
# ℹ 15 more variables: cg_adoption_advantage_03 <dbl>,
#   cg_adoption_advantage_04 <dbl>, cg_adoption_fearofuse_01 <dbl>,
#   cg_adoption_fearofuse_02 <dbl>, cg_adoption_fearofuse_03 <dbl>,
#   cg_adoption_fearofuse_04 <dbl>, cg_adoption_social_01 <dbl>,
#   cg_adoption_social_02 <dbl>, cg_adoption_social_03 <dbl>,
#   cg_adoption_social_04 <dbl>, adopter <fct>, sd_age <dbl>, …
…
> 
> flush(stderr()); flush(stdout())
> 
> ### Name: add_factors
> ### Title: Add PCA columns along with summary statistics (KMO and Bartlett
> ###   test) to a data frame
> ### Aliases: add_factors
> 
> ### ** Examples
> 
> library(volker)
> ds <- volker::chatgpt
> 
> volker::add_factors(ds, starts_with("cg_adoption"))
# A tibble: 97 × 21
    case use_private use_work cg_adoption_advantage_01 cg_adoption_advantage_02
   <dbl>       <dbl>    <dbl>                    <dbl>                    <dbl>
 1   170           4        4                        3                        4
 2   183           1        1                        4                        3
 3   195           2        4                        5                        5
 4   212           5        5                        4                        4
 5   222           2        3                        3                        2
 6   236           3        1                        3                        2
 7   255           3        1                        3                        1
 8   297           3        4                        4                        3
 9   309           3        3                        3                        4
10   325           2        1                        4                        1
# ℹ 87 more rows
# ℹ 16 more variables: cg_adoption_advantage_03 <dbl>,
#   cg_adoption_advantage_04 <dbl>, cg_adoption_fearofuse_01 <dbl>,
#   cg_adoption_fearofuse_02 <dbl>, cg_adoption_fearofuse_03 <dbl>,
#   cg_adoption_fearofuse_04 <dbl>, cg_adoption_social_01 <dbl>,
#   cg_adoption_social_02 <dbl>, cg_adoption_social_03 <dbl>,
#   cg_adoption_social_04 <dbl>, adopter <fct>, sd_age <dbl>, …
…
> cleanEx()
> nameEx("add_index")
> ### * add_index
> 
> flush(stderr()); flush(stdout())
> 
> ### Name: add_index
> ### Title: Calculate the mean value of multiple items
> ### Aliases: add_index
> 
> ### ** Examples
> 
> ds <- volker::chatgpt
> volker::add_index(ds, starts_with("cg_adoption"))
# A tibble: 97 × 20
    case use_private use_work cg_adoption_advantage_01 cg_adoption_advantage_02
   <dbl>       <dbl>    <dbl>                    <dbl>                    <dbl>
 1   170           4        4                        3                        4
 2   183           1        1                        4                        3
 3   195           2        4                        5                        5
 4   212           5        5                        4                        4
 5   222           2        3                        3                        2
 6   236           3        1                        3                        2
 7   255           3        1                        3                        1
 8   297           3        4                        4                        3
 9   309           3        3                        3                        4
10   325           2        1                        4                        1
# ℹ 87 more rows
# ℹ 15 more variables: cg_adoption_advantage_03 <dbl>,
#   cg_adoption_advantage_04 <dbl>, cg_adoption_fearofuse_01 <dbl>,
#   cg_adoption_fearofuse_02 <dbl>, cg_adoption_fearofuse_03 <dbl>,
#   cg_adoption_fearofuse_04 <dbl>, cg_adoption_social_01 <dbl>,
#   cg_adoption_social_02 <dbl>, cg_adoption_social_03 <dbl>,
#   cg_adoption_social_04 <dbl>, adopter <fct>, sd_age <dbl>, …
…
> 
> cleanEx()
> nameEx("codebook")
> ### * codebook
> 
> flush(stderr()); flush(stdout())
> 
> ### Name: codebook
> ### Title: Get variable and value labels from a data set
> ### Aliases: codebook
> 
> ### ** Examples
> 
> volker::codebook(volker::chatgpt)
# A tibble: 94 × 6
   item_name     item_group item_class item_label         value_name value_label
   <chr>         <chr>      <chr>      <chr>              <chr>      <chr>      
 1 case          case       numeric    case               <NA>       <NA>       
 2 sd_age        sd         numeric    Age                <NA>       <NA>       
 3 cg_activities cg         character  Activities with C… <NA>       <NA>       
 4 adopter       adopter    factor     Innovator type     I try new… I try new …
 5 adopter       adopter    factor     Innovator type     I try new… I try new …
 6 adopter       adopter    factor     Innovator type     I wait un… I wait unt…
 7 adopter       adopter    factor     Innovator type     I only us… I only use…
 8 adopter       adopter    factor     Innovator type     [no answe… [no answer]
 9 sd_gender     sd         factor     Gender             female     female     
10 sd_gender     sd         factor     Gender             male       male       
# ℹ 84 more rows
…
> nameEx("data_prepare")
> ### * data_prepare
> 
> flush(stderr()); flush(stdout())
> 
> ### Name: data_prepare
> ### Title: Prepare data for calculation
> ### Aliases: data_prepare
> ### Keywords: internal
> 
> ### ** Examples
> 
> data <- volker::chatgpt
> data_prepare(data, sd_age, sd_gender)
# A tibble: 101 × 19
    case use_private use_work cg_adoption_advantage_01 cg_adoption_advantage_02
   <dbl>       <dbl>    <dbl>                    <dbl>                    <dbl>
 1   170           4        4                        3                        4
 2   183           1        1                        4                        3
 3   195           2        4                        5                        5
 4   212           5        5                        4                        4
 5   222           2        3                        3                        2
 6   236           3        1                        3                        2
 7   255           3        1                        3                        1
 8   297           3        4                        4                        3
 9   309           3        3                        3                        4
10   325           2        1                        4                        1
# ℹ 91 more rows
# ℹ 14 more variables: cg_adoption_advantage_03 <dbl>,
#   cg_adoption_advantage_04 <dbl>, cg_adoption_fearofuse_01 <dbl>,
#   cg_adoption_fearofuse_02 <dbl>, cg_adoption_fearofuse_03 <dbl>,
#   cg_adoption_fearofuse_04 <dbl>, cg_adoption_social_01 <dbl>,
#   cg_adoption_social_02 <dbl>, cg_adoption_social_03 <dbl>,
#   cg_adoption_social_04 <dbl>, adopter <fct>, sd_age <dbl>, …
…
> nameEx("labs_clear")
> ### * labs_clear
> 
> flush(stderr()); flush(stdout())
> 
> ### Name: labs_clear
> ### Title: Remove all comments from the selected columns
> ### Aliases: labs_clear
> 
> ### ** Examples
> 
> library(volker)
> volker::chatgpt |>
+   labs_clear()
# A tibble: 101 × 19
    case use_private use_work cg_adoption_advantage_01 cg_adoption_advantage_02
   <dbl>       <dbl>    <dbl>                    <dbl>                    <dbl>
 1   170           4        4                        3                        4
 2   183           1        1                        4                        3
 3   195           2        4                        5                        5
 4   212           5        5                        4                        4
 5   222           2        3                        3                        2
 6   236           3        1                        3                        2
 7   255           3        1                        3                        1
 8   297           3        4                        4                        3
 9   309           3        3                        3                        4
10   325           2        1                        4                        1
# ℹ 91 more rows
# ℹ 14 more variables: cg_adoption_advantage_03 <dbl>,
#   cg_adoption_advantage_04 <dbl>, cg_adoption_fearofuse_01 <dbl>,
#   cg_adoption_fearofuse_02 <dbl>, cg_adoption_fearofuse_03 <dbl>,
#   cg_adoption_fearofuse_04 <dbl>, cg_adoption_social_01 <dbl>,
#   cg_adoption_social_02 <dbl>, cg_adoption_social_03 <dbl>,
#   cg_adoption_social_04 <dbl>, adopter <fct>, sd_age <dbl>, …
…
