HE plot MMRA Examples • heplots
…
yvars <- c("SAT", "PPVT", "Raven" )      # outcome variables
xvars <- c("n", "s", "ns", "na", "ss")   # predictors
xvars <- c("n", "s", "ns")               # make a smaller example

Rohwer_long <- Rohwer %>%
  dplyr::select(-group, -na, -ss) |>
  tidyr::pivot_longer(cols = all_of(xvars), 
                      names_to = "xvar", values_to = "x") |>
  tidyr::pivot_longer(cols = all_of(yvars), 
                      names_to = "yvar", values_to = "y") |>
  dplyr::mutate(xvar = factor(xvar, levels = xvars),
                yvar = factor(yvar, levels = yvars))
Rohwer_long
#> # A tibble: 621 × 5
#>    SES   xvar      x yvar      y
#>    <fct> <fct> <int> <fct> <int>
#>  1 Lo    n         1 SAT      49
#>  2 Lo    n         1 PPVT     48
#>  3 Lo    n         1 Raven     8
#>  4 Lo    s         2 SAT      49
#>  5 Lo    s         2 PPVT     48
#>  6 Lo    s         2 Raven     8
#>  7 Lo    ns        6 SAT      49
#>  8 Lo    ns        6 PPVT     48
#>  9 Lo    ns        6 Raven     8
#> 10 Lo    n         5 SAT      47
#> # ℹ 611 more rows
…
